<svg width="43" height="43" viewBox="0 0 43 43" fill="none" xmlns="http://www.w3.org/2000/svg">
<path d="M19.6412 23.2414C19.4883 22.7952 19.7262 22.3094 20.1725 22.1565L25.0208 20.4956C25.4671 20.3427 25.9528 20.5805 26.1057 21.0268L27.7667 25.8752C27.9196 26.3215 27.6817 26.8072 27.2355 26.9601L22.3871 28.6211C21.9408 28.7739 21.4551 28.5361 21.3022 28.0898L19.6412 23.2414Z" fill="#6FCF97"/>
<path d="M3.41206 31.9095C3.25917 31.4632 3.49701 30.9775 3.9433 30.8246L14.1474 27.3289C14.5937 27.176 15.0794 27.4138 15.2323 27.8601L17.2337 33.7022C17.3866 34.1485 17.1487 34.6342 16.7025 34.7871L6.49834 38.2828C6.05206 38.4357 5.56634 38.1979 5.41345 37.7516L3.41206 31.9095Z" fill="#6FCF97"/>
<path d="M21.0107 8.10022C20.7713 8.15055 20.5297 8.19229 20.2869 8.22407C20.3478 8.37593 20.5237 8.70337 20.7401 8.79827C21.1058 8.8098 21.4756 8.83365 21.8337 8.89077C21.5634 8.83851 21.1724 8.34196 21.0107 8.10022Z" fill="#6FCF97"/>
<path d="M23.1522 4.50663C23.3402 4.56781 23.5176 4.66219 23.6722 4.78455L23.6216 6.29261C23.4231 6.35029 23.13 6.17415 23.0544 5.98188C22.9789 5.78961 22.8934 5.54753 22.5555 5.21059C22.2177 4.87364 21.1991 5.52738 21.1991 5.52738C20.8976 5.52977 20.6407 5.55924 20.3452 5.61943C20.6021 5.36389 20.739 5.13301 20.7862 4.78455C21.2132 4.59577 22.0787 4.35456 22.5425 4.39826C22.7481 4.41748 22.9554 4.4437 23.1522 4.50663Z" fill="#6FCF97"/>
<path d="M19.6412 23.2414C19.4883 22.7952 19.7262 22.3094 20.1725 22.1565L25.0208 20.4956C25.4671 20.3427 25.9528 20.5805 26.1057 21.0268L27.7667 25.8752C27.9196 26.3215 27.6817 26.8072 27.2355 26.9601L22.3871 28.6211C21.9408 28.7739 21.4551 28.5361 21.3022 28.0898L19.6412 23.2414Z" stroke="#219653" stroke-miterlimit="10"/>
<path d="M3.41206 31.9095C3.25917 31.4632 3.49701 30.9775 3.9433 30.8246L14.1474 27.3289C14.5937 27.176 15.0794 27.4138 15.2323 27.8601L17.2337 33.7022C17.3866 34.1485 17.1487 34.6342 16.7025 34.7871L6.49834 38.2828C6.05206 38.4357 5.56634 38.1979 5.41345 37.7516L3.41206 31.9095Z" stroke="#219653" stroke-miterlimit="10"/>
<path d="M21.0107 8.10022C20.7713 8.15055 20.5297 8.19229 20.2869 8.22407C20.3478 8.37593 20.5237 8.70337 20.7401 8.79827C21.1058 8.8098 21.4756 8.83365 21.8337 8.89077C21.5634 8.83851 21.1724 8.34196 21.0107 8.10022Z" stroke="#219653" stroke-miterlimit="10"/>
<path d="M23.1522 4.50663C23.3402 4.56781 23.5176 4.66219 23.6722 4.78455L23.6216 6.29261C23.4231 6.35029 23.13 6.17415 23.0544 5.98188C22.9789 5.78961 22.8934 5.54753 22.5555 5.21059C22.2177 4.87364 21.1991 5.52738 21.1991 5.52738C20.8976 5.52977 20.6407 5.55924 20.3452 5.61943C20.6021 5.36389 20.739 5.13301 20.7862 4.78455C21.2132 4.59577 22.0787 4.35456 22.5425 4.39826C22.7481 4.41748 22.9554 4.4437 23.1522 4.50663Z" stroke="#219653" stroke-miterlimit="10"/>
<path d="M25.371 2.79495C25.5367 3.01587 25.8501 3.06064 26.071 2.89495C26.2919 2.72927 26.3367 2.41587 26.171 2.19495L25.371 2.79495ZM25.5304 1.34079C25.3647 1.11987 25.0513 1.0751 24.8304 1.24079C24.6095 1.40647 24.5647 1.71987 24.7304 1.94079L25.5304 1.34079ZM27.4064 2.28141C27.4064 2.55756 27.6303 2.78141 27.9064 2.78141C28.1826 2.78141 28.4064 2.55756 28.4064 2.28141H27.4064ZM28.4064 1.42725C28.4064 1.1511 28.1826 0.927246 27.9064 0.927246C27.6303 0.927246 27.4064 1.1511 27.4064 1.42725H28.4064ZM29.4747 2.1414C29.2795 2.33666 29.2795 2.65325 29.4747 2.84851C29.67 3.04377 29.9866 3.04377 30.1818 2.84851L29.4747 2.1414ZM31.036 1.99434C31.2313 1.79908 31.2313 1.4825 31.036 1.28723C30.8407 1.09197 30.5242 1.09197 30.3289 1.28723L31.036 1.99434ZM14.7253 24.5357C14.9866 24.4462 15.1258 24.1618 15.0363 23.9006C14.9468 23.6394 14.6625 23.5001 14.4012 23.5896L14.7253 24.5357ZM5.53603 26.6267C5.2748 26.7162 5.13557 27.0005 5.22507 27.2617C5.31456 27.523 5.59889 27.6622 5.86013 27.5727L5.53603 26.6267ZM36.5988 17.279C36.8621 17.1957 37.0081 16.9148 36.9248 16.6515C36.8415 16.3882 36.5606 16.2423 36.2973 16.3255L36.5988 17.279ZM30.7452 18.0813C30.4819 18.1646 30.336 18.4455 30.4193 18.7088C30.5025 18.9721 30.7835 19.118 31.0468 19.0348L30.7452 18.0813ZM41.2968 17.7061C41.5601 17.6228 41.706 17.3419 41.6227 17.0786C41.5395 16.8153 41.2585 16.6693 40.9952 16.7526L41.2968 17.7061ZM35.4432 18.5084C35.1799 18.5916 35.0339 18.8726 35.1172 19.1359C35.2004 19.3992 35.4814 19.5451 35.7447 19.4618L35.4432 18.5084ZM14.2982 30.0877C14.5595 29.9983 14.6987 29.7139 14.6092 29.4527C14.5197 29.1915 14.2354 29.0522 13.9741 29.1417L14.2982 30.0877ZM5.10895 32.1788C4.84771 32.2683 4.70849 32.5526 4.79798 32.8138C4.88748 33.0751 5.1718 33.2143 5.43304 33.1248L5.10895 32.1788ZM5.63956 33.887C5.37832 33.9765 5.23909 34.2608 5.32858 34.5221C5.41808 34.7833 5.7024 34.9225 5.96364 34.833L5.63956 33.887ZM14.8289 31.7961C15.0901 31.7066 15.2293 31.4223 15.1398 31.161C15.0504 30.8998 14.766 30.7605 14.5048 30.85L14.8289 31.7961ZM6.17666 35.548C5.91543 35.6375 5.7762 35.9218 5.86569 36.183C5.95518 36.4443 6.23951 36.5835 6.50075 36.494L6.17666 35.548ZM15.366 33.457C15.6272 33.3676 15.7664 33.0832 15.6769 32.822C15.5875 32.5608 15.3031 32.4215 15.0419 32.511L15.366 33.457ZM7.27888 23.906C7.01764 23.9955 6.87842 24.2798 6.96791 24.5411C7.05741 24.8023 7.34173 24.9415 7.60297 24.852L7.27888 23.906ZM13.5131 22.8273C13.7743 22.7378 13.9136 22.4535 13.8241 22.1923C13.7346 21.931 13.4502 21.7918 13.189 21.8813L13.5131 22.8273ZM4.6494 11.521L4.53364 11.0345L4.6494 11.521ZM7.18614 9.28015L7.54448 9.62886L7.54579 9.62751L7.18614 9.28015ZM10.9477 6.57961L10.7536 6.11883L10.7534 6.11892L10.9477 6.57961ZM15.8953 5.28265L16.0268 5.76505L16.0268 5.76503L15.8953 5.28265ZM19.9929 5.26491C19.7972 5.45967 19.7964 5.77625 19.9911 5.97202C20.1859 6.16778 20.5025 6.16859 20.6982 5.97383L19.9929 5.26491ZM23.1789 9.9644C23.3852 10.1479 23.7013 10.1295 23.8848 9.92316C24.0684 9.71684 24.0499 9.4008 23.8436 9.21726L23.1789 9.9644ZM21.1995 5.52732L21.1962 5.02733L21.1955 5.02734L21.1995 5.52732ZM19.2598 5.91711L19.1024 5.44252L19.1016 5.4428L19.2598 5.91711ZM18.3919 6.32088L18.0938 5.91948L18.092 5.92079L18.3919 6.32088ZM17.914 7.11793L17.4149 7.08761L17.4148 7.08983L17.914 7.11793ZM19.9222 8.26807L19.8811 7.76976L19.8804 7.76982L19.9222 8.26807ZM21.0572 8.10027L20.9544 7.61094L20.9543 7.61096L21.0572 8.10027ZM21.4795 8.54433C21.7537 8.57694 22.0024 8.3811 22.0351 8.10689C22.0677 7.83268 21.8718 7.58395 21.5976 7.55133L21.4795 8.54433ZM22.1028 8.63732C21.896 8.82025 21.8766 9.13624 22.0595 9.3431C22.2424 9.54996 22.5584 9.56936 22.7653 9.38642L22.1028 8.63732ZM20.2963 16.0788C20.5717 16.0992 20.8115 15.8925 20.8319 15.6171C20.8523 15.3417 20.6456 15.1019 20.3702 15.0815L20.2963 16.0788ZM18.9417 15.2179L18.6407 15.6171L18.6422 15.6182L18.9417 15.2179ZM18.5886 15.0204L18.5034 15.5131L18.5058 15.5135L18.5886 15.0204ZM18.2249 15.0763L18.3646 15.5564L18.3653 15.5562L18.2249 15.0763ZM19.0665 12.7935L19.0592 13.2935H19.0592L19.0665 12.7935ZM21.2978 13.7811L21.6886 13.4692L21.6866 13.4668L21.2978 13.7811ZM21.6053 14.3841L21.1155 14.4849L21.116 14.4874L21.6053 14.3841ZM20.3598 16.1613L20.1916 15.6904L20.191 15.6906L20.3598 16.1613ZM10.136 18.7767L10.0287 19.265L10.0302 19.2654L10.136 18.7767ZM7.859 18.0391L7.9321 17.5444L7.93154 17.5443L7.859 18.0391ZM20.3456 8.78898L20.3386 9.28894L20.3387 9.28894L20.3456 8.78898ZM20.5499 11.5676C20.7334 11.7739 21.0494 11.7925 21.2558 11.6091C21.4622 11.4256 21.4807 11.1096 21.2973 10.9032L20.5499 11.5676ZM18.102 13.3248C18.3696 13.3927 18.6417 13.2308 18.7096 12.9631C18.7775 12.6955 18.6155 12.4234 18.3479 12.3555L18.102 13.3248ZM18.5904 11.0962V11.5962L18.5915 11.5962L18.5904 11.0962ZM23.1637 12.325L22.8057 12.674L22.8062 12.6746L23.1637 12.325ZM23.6872 13.7933L24.1705 13.9216L24.1707 13.9208L23.6872 13.7933ZM22.7807 14.7127L22.5955 14.2482L22.5948 14.2485L22.7807 14.7127ZM21.5701 14.4091C21.2946 14.4285 21.0871 14.6676 21.1065 14.943C21.1259 15.2185 21.365 15.4261 21.6404 15.4066L21.5701 14.4091ZM25.1025 12.0489C25.2994 11.8553 25.3021 11.5387 25.1085 11.3418C24.9149 11.1449 24.5983 11.1422 24.4014 11.3358L25.1025 12.0489ZM24.1564 12.2813L24.4489 12.6868L24.1564 12.2813ZM23.2836 12.1372C23.0151 12.2017 22.8498 12.4717 22.9144 12.7402C22.9789 13.0087 23.2489 13.174 23.5174 13.1095L23.2836 12.1372ZM14.2763 8.44372C14.0055 8.49753 13.8295 8.76073 13.8834 9.03157C13.9372 9.30242 14.2004 9.47836 14.4712 9.42454L14.2763 8.44372ZM18.4195 8.3854C18.6842 8.30676 18.835 8.02843 18.7564 7.76372C18.6778 7.49901 18.3994 7.34816 18.1347 7.4268L18.4195 8.3854ZM9.23111 11.8572C8.95829 11.8146 8.70254 12.0012 8.65988 12.274C8.61723 12.5468 8.80382 12.8026 9.07664 12.8452L9.23111 11.8572ZM16.3325 9.40428C16.4715 9.16569 16.3908 8.85957 16.1523 8.72053C15.9137 8.5815 15.6075 8.6622 15.4685 8.90079L16.3325 9.40428ZM20.3333 8.22411L20.3982 8.71988L20.3333 8.22411ZM20.7866 8.79831L20.7708 9.29806L20.7866 8.79831ZM21.8801 8.89082L21.9589 8.39706L21.8801 8.89082ZM3.89363 19.5149L3.63024 19.0899L3.89363 19.5149ZM2.66888 19.2208L2.2287 19.458L2.66888 19.2208ZM2.25365 11.9635L2.32977 12.4577L2.25365 11.9635ZM1.52571 12.7276L1.02783 12.6817L1.52571 12.7276ZM23.9124 35.6271L24.3854 35.465L24.3854 35.465L23.9124 35.6271ZM24.4436 34.5422L24.2816 34.0692L24.4436 34.5422ZM29.292 32.8812L29.4541 33.3542L29.292 32.8812ZM30.3769 33.4124L30.8499 33.2504H30.8499L30.3769 33.4124ZM30.4474 33.6182L29.9744 33.7802L30.4474 33.6182ZM29.9162 34.7031L30.0782 35.1761L29.9162 34.7031ZM25.0678 36.364L24.9057 35.891L25.0678 36.364ZM23.9829 35.8328L23.5099 35.9948L23.9829 35.8328ZM29.214 24.9134C29.018 24.7189 28.7014 24.7201 28.5069 24.9161C28.3124 25.1122 28.3136 25.4287 28.5097 25.6232L29.214 24.9134ZM30.2342 26.6301L29.882 26.985C30.008 27.11 30.1909 27.1589 30.3625 27.1133C30.5341 27.0678 30.6686 26.9346 30.716 26.7635L30.2342 26.6301ZM34.6722 27.216L34.214 27.4162L34.2143 27.4169L34.6722 27.216ZM36.2234 31.5166L35.8181 31.8094L36.2234 31.5166ZM18.008 23.2042C18.2456 23.3449 18.5523 23.2663 18.693 23.0286C18.8336 22.791 18.755 22.4843 18.5174 22.3437L18.008 23.2042ZM18.8987 25.6852C19.1525 25.7941 19.4465 25.6766 19.5554 25.4228C19.6642 25.1691 19.5468 24.8751 19.293 24.7662L18.8987 25.6852ZM20.4023 29.0794L20.8757 28.9185C20.8321 28.7903 20.7383 28.6852 20.6159 28.6273C20.4934 28.5695 20.3527 28.5637 20.226 28.6115L20.4023 29.0794ZM20.569 32.1164L20.8544 31.7059L20.569 32.1164ZM20.6739 29.8789L20.2005 30.0397C20.2507 30.1873 20.3668 30.3031 20.5145 30.3528L20.6739 29.8789ZM21.5329 32.4066L22.0063 32.2457C21.9628 32.1175 21.869 32.0124 21.7466 31.9545C21.6241 31.8967 21.4834 31.8909 21.3566 31.9387L21.5329 32.4066ZM21.7592 35.6188L22.0446 35.2083L21.7592 35.6188ZM21.8641 33.3813L21.3907 33.5421C21.4409 33.6897 21.557 33.8055 21.7047 33.8552L21.8641 33.3813ZM19.3311 25.9272L19.8045 25.7664C19.7609 25.6381 19.6672 25.533 19.5447 25.4752C19.4222 25.4173 19.2815 25.4116 19.1548 25.4593L19.3311 25.9272ZM19.4978 28.9643L19.7833 28.5538L19.4978 28.9643ZM19.6027 26.7267L19.1293 26.8876C19.1795 27.0352 19.2956 27.1509 19.4433 27.2006L19.6027 26.7267ZM18.0111 19.7341L17.8503 19.2607L17.8502 19.2607L18.0111 19.7341ZM25.352 17.2394L25.1912 16.766L25.1911 16.766L25.352 17.2394ZM26.1981 17.87L25.7247 18.0308L25.726 18.0347L26.1981 17.87ZM31.9381 34.3207L32.4115 34.1598L32.4102 34.156L31.9381 34.3207ZM31.4756 35.2592L31.6365 35.7326L31.4756 35.2592ZM24.1347 37.7539L23.9738 37.2805L24.1347 37.7539ZM23.1961 37.2915L22.7227 37.4523L23.1961 37.2915ZM17.5486 20.6726L18.022 20.5117L17.5486 20.6726ZM24.6025 17.6896L25.0759 17.5287V17.5287L24.6025 17.6896ZM18.9987 19.5939L18.5253 19.7548L18.9987 19.5939ZM20.4065 20.2875L20.2456 19.8141L20.4065 20.2875ZM23.9089 19.0973L24.0697 19.5707L23.9089 19.0973ZM32.1957 37.3782L32.3142 37.8639L32.1957 37.3782ZM37.0302 41.5654L36.9741 41.0685L37.0302 41.5654ZM36.0911 40.9897L35.6355 41.1957L36.0911 40.9897ZM41.398 37.0901L41.7533 36.7382L41.398 37.0901ZM41.5991 37.9386L42.0723 38.1004L41.5991 37.9386ZM20.9639 23.0361C20.7507 22.8605 20.4356 22.891 20.26 23.1042C20.0845 23.3173 20.115 23.6325 20.3281 23.808L20.9639 23.0361ZM23.7146 25.9492L23.3968 26.3351L23.7146 25.9492ZM24.4063 25.6959L24.8983 25.7853L24.4063 25.6959ZM25.6223 21.8031C25.6717 21.5315 25.4915 21.2712 25.2198 21.2218C24.9481 21.1724 24.6878 21.3526 24.6384 21.6243L25.6223 21.8031ZM26.171 2.19495L25.5304 1.34079L24.7304 1.94079L25.371 2.79495L26.171 2.19495ZM28.4064 2.28141V1.42725H27.4064V2.28141H28.4064ZM30.1818 2.84851L31.036 1.99434L30.3289 1.28723L29.4747 2.1414L30.1818 2.84851ZM5.96364 34.833L14.8289 31.7961L14.5048 30.85L5.63956 33.887L5.96364 34.833ZM6.50075 36.494L15.366 33.457L15.0419 32.511L6.17666 35.548L6.50075 36.494ZM7.60297 24.852L13.5131 22.8273L13.189 21.8813L7.27888 23.906L7.60297 24.852ZM2.32977 12.4577C2.98379 12.3569 4.00693 12.1878 4.76516 12.0074L4.53364 11.0345C3.8183 11.2048 2.83027 11.3688 2.17753 11.4693L2.32977 12.4577ZM4.76516 12.0074C5.50925 11.8303 6.12249 11.283 6.5689 10.7983C6.79885 10.5486 7.00149 10.2961 7.16773 10.0864C7.34398 9.86417 7.46053 9.71512 7.54448 9.62885L6.8278 8.93145C6.69829 9.06454 6.53882 9.2701 6.38417 9.46514C6.21951 9.6728 6.03637 9.90034 5.83331 10.1208C5.41372 10.5765 4.97206 10.9302 4.53364 11.0345L4.76516 12.0074ZM7.54579 9.62751C8.59417 8.54203 9.7893 7.61096 11.1421 7.0403L10.7534 6.11892C9.23886 6.75782 7.93562 7.78443 6.8265 8.9328L7.54579 9.62751ZM11.1419 7.04039C11.8855 6.72708 12.6749 6.52285 13.5016 6.33927C14.3142 6.1588 15.1877 5.99375 16.0268 5.76505L15.7638 4.80025C14.9548 5.02076 14.1408 5.17296 13.2848 5.36305C12.4428 5.55003 11.5824 5.76967 10.7536 6.11883L11.1419 7.04039ZM16.0268 5.76503C17.5866 5.33968 19.0524 4.65221 19.7383 4.3102L19.292 3.41529C18.6264 3.74717 17.2293 4.4006 15.7637 4.80026L16.0268 5.76503ZM19.7383 4.3102C19.8955 4.23178 20.0291 4.17462 20.1399 4.1392C20.2549 4.10242 20.3163 4.09868 20.3384 4.10027C20.3469 4.10088 20.3088 4.09687 20.2763 4.06041C20.2541 4.0356 20.2772 4.04198 20.2902 4.14918L21.283 4.02913C21.2559 3.80561 21.1846 3.57621 21.0221 3.39429C20.8492 3.20073 20.625 3.11827 20.4101 3.10284C20.2088 3.08839 20.0095 3.13101 19.8353 3.18671C19.6568 3.24378 19.4726 3.32524 19.292 3.41529L19.7383 4.3102ZM20.2902 4.14918C20.3573 4.70427 20.2531 5.00606 19.9929 5.26491L20.6982 5.97383C21.2357 5.43913 21.3758 4.79691 21.283 4.02913L20.2902 4.14918ZM21.1955 5.02734C20.4521 5.03322 19.741 5.23075 19.1024 5.44252L19.4172 6.39169C20.0331 6.18746 20.6221 6.03191 21.2034 6.0273L21.1955 5.02734ZM19.1016 5.4428C18.7993 5.54363 18.4214 5.67611 18.0938 5.91949L18.69 6.72227C18.8754 6.5846 19.1124 6.49335 19.418 6.39142L19.1016 5.4428ZM18.092 5.92079C17.7597 6.16987 17.4459 6.57793 17.4149 7.08761L18.4131 7.14825C18.4208 7.02169 18.511 6.85643 18.6918 6.72096L18.092 5.92079ZM17.4148 7.08983C17.3748 7.8002 17.8969 8.35706 18.4229 8.58784L18.8247 7.67212C18.546 7.54982 18.404 7.30962 18.4132 7.14603L17.4148 7.08983ZM18.4229 8.58784C18.947 8.81783 19.5137 8.8041 19.964 8.76632L19.8804 7.76982C19.4557 7.80545 19.1052 7.79521 18.8247 7.67212L18.4229 8.58784ZM21.1599 8.58959C21.3469 8.55032 21.4173 8.53693 21.4795 8.54433L21.5976 7.55133C21.3365 7.52027 21.0837 7.58379 20.9544 7.61094L21.1599 8.58959ZM22.7653 9.38642C22.7407 9.40812 22.7199 9.4219 22.712 9.42706C22.7024 9.43325 22.6955 9.43717 22.6937 9.43817C22.6911 9.43966 22.6914 9.43938 22.7026 9.43362C22.7208 9.42423 22.7558 9.40645 22.7969 9.38335C22.8815 9.33585 22.9927 9.2656 23.1161 9.16148C23.3652 8.95118 23.6422 8.62067 23.8613 8.10012L22.9397 7.71208C22.7814 8.08799 22.5989 8.28939 22.471 8.39737C22.4058 8.45239 22.3492 8.48788 22.307 8.51158C22.2848 8.52407 22.2668 8.53325 22.2448 8.54455C22.2359 8.54913 22.2194 8.55762 22.2034 8.56661C22.1961 8.57073 22.1494 8.59611 22.1028 8.63732L22.7653 9.38642ZM23.8613 8.10012C24.1463 7.42333 23.9014 6.6313 23.4349 6.06025C22.9511 5.46818 22.1669 5.02103 21.1962 5.02733L21.2027 6.02731C21.8484 6.02312 22.3534 6.31713 22.6605 6.69295C22.9847 7.0898 23.0322 7.4924 22.9397 7.71208L23.8613 8.10012ZM20.3702 15.0815C19.8351 15.0419 19.4991 15.0105 19.2413 14.8176L18.6422 15.6182C19.1785 16.0196 19.8405 16.045 20.2963 16.0788L20.3702 15.0815ZM19.2428 14.8187C19.1807 14.7718 18.9571 14.5753 18.6714 14.5273L18.5058 15.5135C18.485 15.51 18.4828 15.5037 18.5092 15.5203C18.5221 15.5284 18.5383 15.5397 18.5609 15.5566C18.5722 15.5649 18.5838 15.5738 18.5973 15.5841C18.6102 15.5939 18.6255 15.6056 18.6407 15.6171L19.2428 14.8187ZM18.6738 14.5277C18.4113 14.4823 18.156 14.5755 18.0845 14.5964L18.3653 15.5562C18.4032 15.5451 18.423 15.539 18.4508 15.5311C18.4749 15.5243 18.4917 15.5202 18.5047 15.5176C18.5317 15.5121 18.5257 15.5169 18.5034 15.5131L18.6738 14.5277ZM18.0852 14.5962C17.7865 14.6832 17.2704 14.6587 16.8366 14.497C16.625 14.4181 16.4736 14.3211 16.3859 14.2282C16.307 14.1447 16.2907 14.0801 16.2966 14.0172L15.3008 13.9251C15.2635 14.3279 15.4231 14.6652 15.6588 14.9148C15.8856 15.1549 16.1873 15.3222 16.4873 15.434C17.0764 15.6536 17.8165 15.7159 18.3646 15.5564L18.0852 14.5962ZM16.2966 14.0172C16.2974 14.0085 16.3077 13.9335 16.4951 13.8148C16.6763 13.7001 16.9459 13.5968 17.274 13.5128C17.9265 13.3458 18.6772 13.2879 19.0592 13.2935L19.0738 12.2936C18.616 12.2869 17.7758 12.3521 17.026 12.544C16.6529 12.6395 16.2684 12.7747 15.96 12.97C15.6578 13.1614 15.3431 13.468 15.3008 13.9251L16.2966 14.0172ZM19.0592 13.2935C19.7927 13.3042 20.4979 13.587 20.909 14.0955L21.6866 13.4668C21.0435 12.6713 20.0234 12.3074 19.0738 12.2936L19.0592 13.2935ZM20.907 14.093C21.0232 14.2386 21.0918 14.3696 21.1155 14.4849L22.095 14.2834C22.0274 13.9547 21.857 13.6802 21.6886 13.4692L20.907 14.093ZM21.116 14.4874C21.2111 14.9378 20.8617 15.4511 20.1916 15.6904L20.5279 16.6322C21.4145 16.3156 22.3403 15.4456 22.0945 14.2809L21.116 14.4874ZM20.191 15.6906C19.2899 16.0137 18.8089 16.4075 17.0281 16.8557L17.2722 17.8255C19.0746 17.3718 19.8695 16.8682 20.5285 16.6319L20.191 15.6906ZM17.0281 16.8557C16.1194 17.0844 14.6166 17.4899 13.2093 17.8167C12.5071 17.9798 11.8406 18.1203 11.296 18.2075C11.0235 18.2512 10.7888 18.2802 10.5996 18.2928C10.4004 18.306 10.2881 18.298 10.2418 18.288L10.0302 19.2654C10.2179 19.306 10.4445 19.3053 10.6659 19.2906C10.8973 19.2752 11.1651 19.2412 11.4541 19.195C12.0325 19.1024 12.7251 18.9558 13.4355 18.7908C14.8532 18.4616 16.3892 18.0477 17.2722 17.8255L17.0281 16.8557ZM10.2432 18.2883C9.90219 18.2134 9.57459 18.0773 9.18703 17.923C8.81587 17.7753 8.39253 17.6125 7.9321 17.5444L7.78589 18.5337C8.11785 18.5827 8.44296 18.7031 8.81718 18.8521C9.175 18.9945 9.5897 19.1686 10.0287 19.265L10.2432 18.2883ZM7.93154 17.5443C7.22884 17.4413 6.3823 17.704 5.65028 18.0169C4.89339 18.3404 4.15515 18.7646 3.63024 19.0899L4.15702 19.9399C4.66192 19.627 5.3521 19.2319 6.04332 18.9364C6.75941 18.6304 7.38064 18.4743 7.78646 18.5338L7.93154 17.5443ZM3.10907 18.9837C2.48949 17.8336 2.16866 16.8832 2.02484 15.9335C1.88006 14.9775 1.9106 13.9976 2.02359 12.7736L1.02783 12.6817C0.912523 13.9307 0.873034 15.0064 1.03611 16.0832C1.20014 17.1664 1.56504 18.2261 2.2287 19.458L3.10907 18.9837ZM20.3526 8.28903C20.1533 8.28625 19.5672 8.29046 19.0157 8.43722C18.7412 8.51026 18.433 8.62924 18.1846 8.83478C17.9204 9.05345 17.7249 9.37246 17.7249 9.79049H18.7249C18.7249 9.71871 18.7475 9.66696 18.8222 9.60518C18.9127 9.53028 19.0641 9.45913 19.2728 9.40359C19.6877 9.29319 20.1619 9.28647 20.3386 9.28894L20.3526 8.28903ZM17.7249 9.79049C17.7249 10.2745 18.0335 10.6005 18.3276 10.8005C18.6224 11.0009 18.9921 11.14 19.3239 11.244C19.6546 11.3477 20.0124 11.4349 20.2558 11.5019C20.3862 11.5378 20.4835 11.5675 20.5516 11.5936C20.6452 11.6294 20.6054 11.63 20.5499 11.5676L21.2973 10.9032C21.1746 10.7651 21.0001 10.6945 20.9093 10.6597C20.7931 10.6152 20.6564 10.5749 20.5212 10.5377C20.2334 10.4585 19.9334 10.3871 19.623 10.2898C19.3137 10.1928 19.0592 10.0886 18.8899 9.97355C18.7201 9.85806 18.7249 9.79633 18.7249 9.79049H17.7249ZM18.3479 12.3555C18.0778 12.287 17.8002 12.1705 17.6217 12.028C17.4528 11.8932 17.4474 11.8083 17.466 11.735L16.4964 11.4901C16.346 12.0855 16.6559 12.5366 16.9978 12.8096C17.3301 13.0748 17.7589 13.2378 18.102 13.3248L18.3479 12.3555ZM17.466 11.735C17.4694 11.7213 17.4846 11.6395 17.7842 11.5991C18.0802 11.5592 18.3336 11.5962 18.5904 11.5962V10.5962C18.4958 10.5962 18.0291 10.557 17.6505 10.6081C17.2756 10.6586 16.6619 10.8349 16.4964 11.4901L17.466 11.735ZM18.5915 11.5962C19.4108 11.5944 20.1798 11.5961 20.9207 11.7439L21.1162 10.7632C20.2618 10.5928 19.3934 10.5945 18.5893 10.5962L18.5915 11.5962ZM20.9207 11.7439C21.6565 11.8906 22.3329 12.1891 22.8057 12.674L23.5217 11.976C22.8629 11.3003 21.9757 10.9346 21.1162 10.7632L20.9207 11.7439ZM22.8062 12.6746C23.1359 13.0117 23.2766 13.3895 23.2038 13.6657L24.1707 13.9208C24.3754 13.1447 23.954 12.4179 23.5211 11.9754L22.8062 12.6746ZM23.204 13.6649C23.1438 13.8916 22.9213 14.1183 22.5955 14.2482L22.9659 15.1771C23.4728 14.9749 24.0023 14.5549 24.1705 13.9216L23.204 13.6649ZM22.5948 14.2485C22.2701 14.3785 22.0499 14.3753 21.5701 14.4091L21.6404 15.4066C22.0531 15.3775 22.4619 15.3789 22.9666 15.1768L22.5948 14.2485ZM24.4014 11.3358C24.3202 11.4157 24.1963 11.5531 24.1105 11.6436C24.0055 11.7541 23.9221 11.8338 23.8638 11.8758L24.4489 12.6868C24.5905 12.5846 24.7302 12.4432 24.8357 12.3321C24.9603 12.2008 25.0344 12.1159 25.1025 12.0489L24.4014 11.3358ZM23.8638 11.8758C23.6675 12.0174 23.4498 12.0972 23.2836 12.1372L23.5174 13.1095C23.7728 13.0481 24.12 12.9241 24.4489 12.6868L23.8638 11.8758ZM14.4712 9.42454C15.773 9.16589 17.1749 8.75512 18.4195 8.3854L18.1347 7.4268C16.8845 7.7982 15.5257 8.19547 14.2763 8.44372L14.4712 9.42454ZM9.07664 12.8452C11.8951 13.2859 14.9001 11.8624 16.3325 9.40428L15.4685 8.90079C14.2445 11.0013 11.6448 12.2346 9.23111 11.8572L9.07664 12.8452ZM19.9633 8.76637C20.1088 8.75436 20.2539 8.73877 20.3982 8.71988L20.2684 7.72834C20.1393 7.74523 20.0102 7.75911 19.8811 7.76976L19.9633 8.76637ZM20.3982 8.71988C20.6545 8.68633 20.9088 8.64237 21.16 8.58957L20.9543 7.61096C20.7266 7.65881 20.4977 7.69833 20.2684 7.72834L20.3982 8.71988ZM20.8023 8.29856C20.65 8.29376 20.4993 8.29106 20.3525 8.28903L20.3387 9.28894C20.4831 9.29094 20.6271 9.29353 20.7708 9.29806L20.8023 8.29856ZM23.8436 9.21726C23.2757 8.71209 22.6398 8.50567 21.9589 8.39706L21.8014 9.38457C22.3775 9.47647 22.806 9.63268 23.1789 9.9644L23.8436 9.21726ZM21.9589 8.39706C21.571 8.33518 21.1775 8.31039 20.8023 8.29856L20.7708 9.29806C21.127 9.30929 21.4731 9.33221 21.8014 9.38457L21.9589 8.39706ZM3.63024 19.0899C3.4244 19.2174 3.19197 19.1376 3.10907 18.9837L2.2287 19.458C2.61627 20.1774 3.51967 20.3349 4.15702 19.9399L3.63024 19.0899ZM2.17753 11.4693C1.56975 11.563 1.08571 12.0547 1.02783 12.6817L2.02359 12.7736C2.03795 12.6181 2.16091 12.4837 2.32977 12.4577L2.17753 11.4693ZM24.3854 35.465C24.322 35.28 24.4206 35.0786 24.6057 35.0152L24.2816 34.0692C23.5741 34.3115 23.197 35.0816 23.4394 35.7891L24.3854 35.465ZM24.6057 35.0152L29.4541 33.3542L29.13 32.4082L24.2816 34.0692L24.6057 35.0152ZM29.4541 33.3542C29.6391 33.2908 29.8405 33.3894 29.9039 33.5745L30.8499 33.2504C30.6076 32.5429 29.8375 32.1658 29.13 32.4082L29.4541 33.3542ZM29.9039 33.5745L29.9744 33.7802L30.9204 33.4561L30.8499 33.2504L29.9039 33.5745ZM29.9744 33.7802C30.0378 33.9653 29.9392 34.1667 29.7541 34.2301L30.0782 35.1761C30.7857 34.9337 31.1628 34.1637 30.9204 33.4561L29.9744 33.7802ZM29.7541 34.2301L24.9057 35.891L25.2298 36.837L30.0782 35.1761L29.7541 34.2301ZM24.9057 35.891C24.7207 35.9544 24.5193 35.8558 24.4559 35.6708L23.5099 35.9948C23.7523 36.7024 24.5223 37.0794 25.2298 36.837L24.9057 35.891ZM24.4559 35.6708L24.3854 35.465L23.4394 35.7891L23.5099 35.9948L24.4559 35.6708ZM28.5097 25.6232L29.882 26.985L30.5863 26.2751L29.214 24.9134L28.5097 25.6232ZM30.716 26.7635C30.8614 26.2389 30.699 25.6666 30.4877 25.2181C30.2689 24.7536 29.948 24.3157 29.6325 24.0204L28.9492 24.7505C29.1665 24.9539 29.4146 25.2867 29.583 25.6442C29.7589 26.0176 29.8017 26.3182 29.7523 26.4966L30.716 26.7635ZM29.6325 24.0204C29.1599 23.5779 28.4793 22.5888 28.1758 21.6955L27.229 22.0172C27.5853 23.0659 28.3562 24.1954 28.9492 24.7505L29.6325 24.0204ZM28.1758 21.6955C28.0369 21.2868 28.0666 21.038 28.1325 20.8883C28.1978 20.7397 28.3364 20.6025 28.5935 20.4943L28.2055 19.5726C27.7893 19.7479 27.4144 20.0367 27.217 20.4859C27.02 20.934 27.0379 21.4549 27.229 22.0172L28.1758 21.6955ZM28.5935 20.4943C28.4746 20.5444 28.4382 20.4384 28.5824 20.5718C28.7092 20.6891 28.8601 20.893 29.0332 21.1661C29.207 21.4403 29.3633 21.7178 29.537 22.0049C29.6942 22.2645 29.8758 22.5498 30.0627 22.7346L30.7657 22.0234C30.6808 21.9395 30.5589 21.7619 30.3925 21.487C30.2428 21.2396 30.0556 20.9112 29.8778 20.6307C29.6994 20.3492 29.4906 20.0497 29.2614 19.8377C29.0497 19.6419 28.6611 19.3808 28.2055 19.5726L28.5935 20.4943ZM30.0627 22.7346C30.3493 23.0178 31.2364 23.846 32.148 24.8008C32.6018 25.2761 33.0528 25.7739 33.427 26.2382C33.8078 26.7108 34.0837 27.1179 34.214 27.4162L35.1304 27.0159C34.9442 26.5896 34.5975 26.097 34.2056 25.6107C33.807 25.1161 33.335 24.596 32.8713 24.1103C31.9481 23.1433 31.0228 22.2775 30.7657 22.0234L30.0627 22.7346ZM34.2143 27.4169C34.314 27.6441 34.3965 27.9233 34.4814 28.2589C34.5596 28.568 34.6533 28.9835 34.7504 29.3544C34.9548 30.1354 35.2443 31.0153 35.8181 31.8094L36.6287 31.2237C36.1642 30.5809 35.9123 29.8444 35.7178 29.1012C35.6154 28.71 35.5452 28.3866 35.4509 28.0137C35.3633 27.6674 35.2646 27.3217 35.1301 27.0152L34.2143 27.4169ZM35.8181 31.8094C36.2716 32.437 37.3197 33.5823 38.3635 34.6829C39.4177 35.7945 40.4994 36.8933 41.0428 37.4419L41.7533 36.7382C41.2118 36.1916 40.136 35.0987 39.0891 33.9948C38.0318 32.88 37.035 31.7862 36.6287 31.2237L35.8181 31.8094ZM18.2627 22.7739C18.5174 22.3437 18.5173 22.3436 18.5171 22.3435C18.5171 22.3435 18.5169 22.3434 18.5168 22.3433C18.5166 22.3432 18.5164 22.3431 18.5161 22.3429C18.5156 22.3426 18.515 22.3423 18.5143 22.3419C18.5129 22.3411 18.5112 22.34 18.5091 22.3388C18.5049 22.3364 18.4993 22.3332 18.4923 22.3292C18.4785 22.3214 18.4593 22.3108 18.4356 22.2981C18.3883 22.2728 18.3218 22.2387 18.2423 22.2022C18.0881 22.1313 17.8638 22.0413 17.6251 21.995C17.4035 21.9521 17.066 21.926 16.7678 22.1073C16.4278 22.314 16.3 22.6829 16.3023 23.0779L17.3023 23.0721C17.3012 22.8823 17.3542 22.9212 17.2874 22.9618C17.2624 22.9769 17.2905 22.9488 17.4348 22.9767C17.562 23.0014 17.7042 23.0554 17.8248 23.1108C17.8827 23.1375 17.9308 23.1621 17.9637 23.1797C17.9801 23.1885 17.9925 23.1954 18.0001 23.1997C18.0039 23.2019 18.0066 23.2034 18.0079 23.2042C18.0086 23.2046 18.0089 23.2048 18.009 23.2048C18.009 23.2048 18.0089 23.2047 18.0087 23.2046C18.0086 23.2046 18.0085 23.2045 18.0084 23.2045C18.0084 23.2044 18.0083 23.2044 18.0082 23.2043C18.0081 23.2043 18.008 23.2042 18.2627 22.7739ZM16.3023 23.0779C16.3049 23.5346 16.528 23.9252 16.7806 24.226C17.0367 24.531 17.3639 24.7928 17.6694 25.0017C17.9781 25.2127 18.2834 25.3824 18.5099 25.4988C18.6237 25.5573 18.719 25.6031 18.7866 25.6346C18.8205 25.6503 18.8475 25.6625 18.8665 25.671C18.876 25.6753 18.8836 25.6786 18.889 25.681C18.8917 25.6822 18.8939 25.6831 18.8955 25.6838C18.8963 25.6842 18.897 25.6845 18.8975 25.6847C18.8978 25.6848 18.898 25.6849 18.8982 25.685C18.8983 25.685 18.8985 25.6851 18.8985 25.6851C18.8986 25.6852 18.8987 25.6852 19.0959 25.2257C19.293 24.7662 19.2931 24.7662 19.2932 24.7663C19.2932 24.7663 19.2933 24.7663 19.2933 24.7663C19.2933 24.7664 19.2934 24.7664 19.2934 24.7664C19.2934 24.7664 19.2932 24.7663 19.2929 24.7662C19.2923 24.7659 19.2912 24.7654 19.2896 24.7647C19.2864 24.7633 19.2811 24.761 19.2739 24.7578C19.2594 24.7513 19.2373 24.7413 19.2086 24.728C19.1511 24.7012 19.0677 24.6612 18.967 24.6094C18.7645 24.5053 18.4977 24.3567 18.2338 24.1762C17.9668 23.9937 17.721 23.7909 17.5464 23.583C17.3683 23.3708 17.303 23.2003 17.3023 23.0721L16.3023 23.0779ZM20.226 28.6115C19.7052 28.8077 19.3172 29.0986 19.0935 29.4868C18.8674 29.879 18.8469 30.3046 18.9364 30.6916C19.1084 31.4352 19.6983 32.12 20.2836 32.527L20.8544 31.7059C20.3974 31.3881 20.009 30.8915 19.9107 30.4664C19.8651 30.269 19.8865 30.1134 19.9598 29.9862C20.0355 29.855 20.2044 29.6882 20.5785 29.5473L20.226 28.6115ZM20.2836 32.527C20.7022 32.818 21.2096 32.8258 21.6215 32.7071C22.0321 32.5887 22.4354 32.3215 22.664 31.9344C22.9121 31.5144 22.928 30.9882 22.5864 30.5042C22.2726 30.0595 21.6884 29.6926 20.8333 29.405L20.5145 30.3528C21.2877 30.6128 21.6348 30.89 21.7694 31.0808C21.8763 31.2322 21.8579 31.3329 21.803 31.4259C21.7286 31.5519 21.5602 31.684 21.3446 31.7462C21.1303 31.8079 20.957 31.7772 20.8544 31.7059L20.2836 32.527ZM21.1473 29.718L20.8757 28.9185L19.9288 29.2403L20.2005 30.0397L21.1473 29.718ZM21.3566 31.9387C20.8254 32.1389 20.4381 32.4482 20.2234 32.8597C20.0097 33.269 20.0025 33.7111 20.0977 34.1099C20.2825 34.8841 20.8766 35.6141 21.4738 36.0293L22.0446 35.2083C21.5995 34.8988 21.1855 34.3599 21.0703 33.8777C21.0156 33.6483 21.0353 33.4654 21.1099 33.3224C21.1834 33.1816 21.3456 33.0115 21.7092 32.8745L21.3566 31.9387ZM21.4738 36.0293C21.8924 36.3204 22.3998 36.3281 22.8117 36.2094C23.2223 36.0911 23.6256 35.8239 23.8542 35.4368C24.1023 35.0168 24.1182 34.4906 23.7766 34.0066C23.4628 33.5619 22.8786 33.195 22.0235 32.9073L21.7047 33.8552C22.4779 34.1152 22.825 34.3924 22.9596 34.5832C23.0665 34.7346 23.0481 34.8353 22.9932 34.9283C22.9188 35.0543 22.7504 35.1864 22.5348 35.2485C22.3205 35.3103 22.1472 35.2796 22.0446 35.2083L21.4738 36.0293ZM22.3375 33.2204L22.0063 32.2457L21.0595 32.5675L21.3907 33.5421L22.3375 33.2204ZM19.1548 25.4593C18.634 25.6556 18.246 25.9464 18.0223 26.3346C17.7962 26.7269 17.7757 27.1525 17.8652 27.5395C18.0372 28.2831 18.6271 28.9678 19.2124 29.3748L19.7833 28.5538C19.3262 28.236 18.9378 27.7394 18.8395 27.3142C18.7939 27.1169 18.8153 26.9612 18.8887 26.834C18.9643 26.7028 19.1332 26.5361 19.5074 26.3951L19.1548 25.4593ZM19.2124 29.3748C19.631 29.6659 20.1384 29.6736 20.5503 29.5549C20.961 29.4366 21.3643 29.1694 21.5929 28.7823C21.8409 28.3622 21.8568 27.8361 21.5152 27.352C21.2014 26.9073 20.6172 26.5404 19.7621 26.2528L19.4433 27.2006C20.2165 27.4607 20.5636 27.7379 20.6982 27.9286C20.8051 28.0801 20.7867 28.1808 20.7318 28.2738C20.6574 28.3998 20.489 28.5319 20.2734 28.594C20.0591 28.6558 19.8858 28.6251 19.7833 28.5538L19.2124 29.3748ZM20.0762 26.5659L19.8045 25.7664L18.8577 26.0881L19.1293 26.8876L20.0762 26.5659ZM19.8073 25.7653L18.022 20.5117L17.0752 20.8335L18.8605 26.0871L19.8073 25.7653ZM23.9738 37.2805C23.8484 37.3231 23.7122 37.256 23.6695 37.1306L22.7227 37.4523C22.943 38.1007 23.6472 38.4476 24.2955 38.2273L23.9738 37.2805ZM31.4647 34.4816C31.5073 34.607 31.4402 34.7432 31.3148 34.7858L31.6365 35.7326C32.2848 35.5123 32.6318 34.8082 32.4115 34.1598L31.4647 34.4816ZM25.5129 17.7129C25.5155 17.712 25.5087 17.7134 25.5028 17.7119C25.5016 17.7116 25.5168 17.7154 25.5455 17.74C25.6084 17.7939 25.6803 17.9003 25.7247 18.0308L26.6715 17.7091C26.5844 17.4528 26.4267 17.1781 26.1961 16.9806C25.955 16.774 25.5961 16.6284 25.1912 16.766L25.5129 17.7129ZM17.8502 19.2607C17.2018 19.481 16.8549 20.1852 17.0752 20.8335L18.022 20.5117C17.9794 20.3863 18.0465 20.2501 18.1719 20.2075L17.8502 19.2607ZM24.0696 17.6753L24.1291 17.8504L25.0759 17.5287L25.0164 17.3536L24.0696 17.6753ZM24.3821 17.041L18.7783 18.9454L19.1001 19.8923L24.7039 17.9879L24.3821 17.041ZM18.4658 19.5797L18.5253 19.7548L19.4721 19.433L19.4126 19.258L18.4658 19.5797ZM20.5674 20.7609L24.0697 19.5707L23.748 18.6239L20.2456 19.8141L20.5674 20.7609ZM18.5253 19.7548C18.8113 20.5965 19.7256 21.047 20.5674 20.7609L20.2456 19.8141C19.9268 19.9225 19.5805 19.7518 19.4721 19.433L18.5253 19.7548ZM24.1291 17.8504C24.2375 18.1693 24.0668 18.5156 23.748 18.6239L24.0697 19.5707C24.9115 19.2847 25.362 18.3704 25.0759 17.5287L24.1291 17.8504ZM41.126 37.7769C40.6571 39.1484 40.1322 39.8806 39.5162 40.3149C38.8903 40.7561 38.1009 40.9414 36.9741 41.0685L37.0862 42.0622C38.2389 41.9322 39.2471 41.7281 40.0924 41.1322C40.9476 40.5294 41.5675 39.5768 42.0723 38.1004L41.126 37.7769ZM27.3026 37.1122C27.6643 37.2146 28.526 37.5231 29.4089 37.7305C30.3066 37.9413 31.38 38.0919 32.3142 37.8639L32.0772 36.8924C31.3807 37.0623 30.499 36.9593 29.6375 36.757C28.7614 36.5512 28.0599 36.2873 27.5749 36.15L27.3026 37.1122ZM32.3142 37.8639C32.5145 37.8151 32.7633 37.8505 33.0712 38.0114C33.3798 38.1727 33.7102 38.4417 34.0403 38.7904C34.7004 39.4878 35.2887 40.4289 35.6355 41.1957L36.5467 40.7837C36.1616 39.9323 35.5149 38.8937 34.7666 38.103C34.3924 37.7076 33.9752 37.3555 33.5343 37.125C33.0925 36.8942 32.5895 36.7674 32.0772 36.8924L32.3142 37.8639ZM31.3148 34.7858L27.2779 36.1577L27.5996 37.1045L31.6365 35.7326L31.3148 34.7858ZM23.6695 37.1306L23.1399 35.572L22.1931 35.8938L22.7227 37.4523L23.6695 37.1306ZM25.726 18.0347L31.466 34.4854L32.4102 34.156L26.6702 17.7052L25.726 18.0347ZM27.2779 36.1577L23.9738 37.2805L24.2955 38.2273L27.5996 37.1045L27.2779 36.1577ZM24.7039 17.9878L25.513 17.7128L25.1911 16.766L24.3821 17.041L24.7039 17.9878ZM18.7784 18.9454L17.8503 19.2607L18.1719 20.2075L19.1 19.8923L18.7784 18.9454ZM36.9741 41.0685C36.826 41.0853 36.6399 40.99 36.5467 40.7837L35.6355 41.1957C35.8747 41.7246 36.4326 42.136 37.0862 42.0622L36.9741 41.0685ZM41.0428 37.4419C41.1363 37.5363 41.1638 37.6664 41.126 37.7769L42.0723 38.1004C42.2381 37.6154 42.1027 37.0909 41.7533 36.7382L41.0428 37.4419ZM20.3281 23.808L23.3968 26.3351L24.0325 25.5632L20.9639 23.0361L20.3281 23.808ZM24.8983 25.7853L25.6223 21.8031L24.6384 21.6243L23.9144 25.6064L24.8983 25.7853ZM23.3968 26.3351C23.9431 26.785 24.7717 26.4816 24.8983 25.7853L23.9144 25.6064C23.9244 25.5517 23.9895 25.5278 24.0325 25.5632L23.3968 26.3351ZM5.86013 27.5727L14.7253 24.5357L14.4012 23.5896L5.53603 26.6267L5.86013 27.5727ZM31.0468 19.0348L36.5988 17.279L36.2973 16.3255L30.7452 18.0813L31.0468 19.0348ZM35.7447 19.4618L41.2968 17.7061L40.9952 16.7526L35.4432 18.5084L35.7447 19.4618ZM5.43304 33.1248L14.2982 30.0877L13.9741 29.1417L5.10895 32.1788L5.43304 33.1248Z" fill="#333333"/>
<path d="M23.3978 10.643C23.2502 10.4193 23.2537 10.1309 23.2625 9.86173L23.4305 4.85572L23.4734 4.00677C23.5124 2.84473 31.9954 2.84477 32.0344 4.00677C32.1046 6.10078 32.1749 7.76771 32.2452 9.86173C32.254 10.1309 32.2575 10.4193 32.1099 10.643C31.9887 10.8283 31.7831 10.9384 31.6057 11.0695C31.0751 11.4611 30.7377 12.1026 30.7149 12.7598C30.7149 13.5369 24.8198 13.5369 24.7928 12.7598C24.77 12.1026 24.4326 11.4611 23.902 11.0695C23.7246 10.9384 23.519 10.8283 23.3978 10.643Z" fill="#6FCF97" stroke="#219653" stroke-miterlimit="10"/>
<path d="M24.2759 11.0366C27.0029 11.4935 28.6863 11.5615 31.1092 11.0366" stroke="#333333" stroke-linecap="round" stroke-linejoin="round"/>
</svg>
